Multiclass Random Forest Model
…
7/25/2021

rm(list = ls())

### Packages
require(tidyverse)
require(tidymodels)
require(palmerpenguins)
doParallel::registerDoParallel()

### Check data
penguins

## # A tibble: 344 x 8
##    species island    bill_length_mm bill_depth_mm flipper_length_mm body_mass_g
##    <fct>   <fct>              <dbl>         <dbl>             <int>       <int>
##  1 Adelie  Torgersen           39.1          18.7               181        3750
##  2 Adelie  Torgersen           39.5          17.4               186        3800
##  3 Adelie  Torgersen           40.3          18                 195        3250
##  4 Adelie  Torgersen           NA            NA                  NA          NA
##  5 Adelie  Torgersen           36.7          19.3               193        3450
##  6 Adelie  Torgersen           39.3          20.6               190        3650
##  7 Adelie  Torgersen           38.9          17.8               181        3625
##  8 Adelie  Torgersen           39.2          19.6               195        4675
##  9 Adelie  Torgersen           34.1          18.1               193        3475
## 10 Adelie  Torgersen           42            20.2               190        4250
## # ... with 334 more rows, and 2 more variables: sex <fct>, year <int>
…
### Collect Metrics
rf_tune %>% collect_metrics()

## # A tibble: 40 x 8
##     mtry min_n .metric  .estimator  mean     n  std_err .config              
##    <int> <int> <chr>    <chr>      <dbl> <int>    <dbl> <chr>                
##  1     4     5 accuracy multiclass 0.982    10 0.0100   Preprocessor1_Model01
##  2     4     5 roc_auc  hand_till  0.999    10 0.00102  Preprocessor1_Model01
##  3     3     3 accuracy multiclass 0.991    10 0.00628  Preprocessor1_Model02
##  4     3     3 roc_auc  hand_till  0.999    10 0.000750 Preprocessor1_Model02
##  5     4    15 accuracy multiclass 0.979    10 0.00985  Preprocessor1_Model03
##  6     4    15 roc_auc  hand_till  0.998    10 0.00138  Preprocessor1_Model03
##  7     4    10 accuracy multiclass 0.979    10 0.00985  Preprocessor1_Model04
##  8     4    10 roc_auc  hand_till  0.998    10 0.00116  Preprocessor1_Model04
##  9     3    29 accuracy multiclass 0.982    10 0.00899  Preprocessor1_Model05
## 10     3    29 roc_auc  hand_till  0.998    10 0.00145  Preprocessor1_Model05
## # ... with 30 more rows
…
